"blank"                   "================================================="
"blank"                   "tHe-pWg | Clientpack 8.5a"
"blank"                   "================================================="
"+mfwd;cc"                "Forward"
"+mback;cc"               "Backward"
"+mleft;cc"               "Left"
"+mright;cc"              "Right"
"+speed"                  "#L4D_Walk"
"a_wlk"                   "walk on/off"
"+jump;cro;cc"            "#Valve_Jump"
"+duck;cc"                "Normal duck"
"+crouchjump;cro;cc"      "Duckjump"
"a_dck"                   "duck toggle"
"blank"                   "================================================="
"blank"                   "#Cstrike_Combat_Title"
"blank"                   "================================================="
"+attack"                 "Attack 1"
"+shoot;"                 "Attack 1 - dynamic/thigger crosshair during shoot"
"+att2;cc"                "Attack 2 - move surv 1-4 + reset dyn/no crosshair"
"+scopnc;+a_relOf"        "Zoom no crosshair"
"+scope;+a_relOf"         "Zoom dynamic crosshair"
"+zoom;+a_relOf"          "Normal zoom"
"+reload;cro;cc"          "#Valve_Reload_Weapon"
"a_rel;cro;cc"            "Pumpgun autoreload"
"slot3;cro"               "#L4D360UI_Controller_Grenade"
"slot1;+a_relOf;cro"      "#L4D360UI_Controller_Primary"
"slot2;+a_relOf;cro"      "#L4D360UI_Controller_Secondary"
"invprev;+a_relOf;cro"    "#Valve_Previous_Weapon"
"invnext;+a_relOf;cro"    "#Valve_Next_Weapon"
"lastinv;+a_relOf;cro"    "#Valve_Last_Weapon_Used"
"health"                  "select pills/medi"
"+use"                    "#Valve_Use_Items"
"impulse 100"             "#Valve_Flashlight"
"blank"                   "================================================="
"blank"                   "Misc Functions"
"blank"                   "================================================="
"toggleconsole"           "console on/off"
"fulwin"                  "Switch Window / fullscreen mode"
"+ng"                     "Display scores + netgraph"
"ratio"                   "Lerp-switch 1/2"
"cmdupd"                  "cmd/update rate: 30/60/100"
"motd"                    "#L4D_MOTD"
"reexec"                  "Re-execute Autoexec"
"glowOn"                  "Adv. glows On/Off with check wait enabled (F-Key)"
"fpsON"                   "Showfps on /off"
"impulse 201"             "#Valve_Spray_Logo"
"jpeg"                    "#Valve_Take_Screen_Shot"
"glowOn2;quit;snd_updateaudiocache"            "Quit Game  + Reset Glows + updateaudiocache"
"glowOn2;disconnect;snd_updateaudiocache"      "Disconnect + Reset Glows + updateaudiocache"
"openserverbrowser"       "open serverbrowser"
"demoui"                  "Demoplayer"
"blank"                   "================================================="
"blank"                   "Competive Functions"
"blank"                   "================================================="
"sm_admin"                "sm admin menu"
"srv_group"               "pWg servergroup 1-6 tap"
"specinc"                 "max playerslots +1"
"specdec"                 "max playerslots -1"
"srv_chk"                 "4-Tap Serverstatus screen (only F-Keys)"
"demo_rec"                "Demorecording Start/Stop for 10 Demos"
"chg_ts"                  "Spectate / Choose Team"
"rdyON"                   "!ready - !unready"
"pseON"                   "!pause - !unpause"
"hetap"                   "!health /max. distance /Tank percent"
"say !tankhud"            "!tankhud"
"sm_lerps"                "Lerptracker: Show lerp values of all players"
"fsON"                    "!forcestart + !abort"
"blank"                   "================================================="
"blank"                   "#Valve_Communication_Title"
"blank"                   "================================================="
"+voicerecord"            "#Valve_Use_Voice_Communication"
"Vote Yes"                "#L4D_vote_yes"
"Vote No"                 "#L4D_vote_no"
"+mouse_menu Orders"      "#L4D_orders"
"+mouse_menu QA"          "#L4D_questions"
"messagemode"             "#Valve_Chat_Message"
"messagemode2"            "#Valve_Team_Message"
"blank"                   "================================================="
"blank"                   "Trainings Functions (needs rcon + IP connect!)"
"blank"                   "================================================="
"traON"                   "Trainmode on/off: Removes Surv. and inf. from map"
"noclip"                  "noclip on /off"
"+hnr_swn"                "z_spawn hunter"
"srv_swn"                 "Spawn surv.@ Crosshair (needs sm_teleport)"
"botON"                   "Bot Start / Stop"
"snd_restart"             "snd_restart"
"blank"                   "================================================="
"blank"                   "Personal Functions modify in a_personal"
"blank"                   "================================================="
"name1"                   "name1 modify kb_act.lst and in a_personal.cfg"
"name2"                   "name2 modify kb_act.lst and in a_personal.cfg"
"name3"                   "name3 modify kb_act.lst and in a_personal.cfg"